Problem Set 1
…
# A tibble: 1 × 4
  w1    y1    w2    y2   
  <lgl> <lgl> <lgl> <lgl>
1 TRUE  TRUE  TRUE  TRUE 

dat

# A tibble: 9,853 × 17
   state state_name population region mmwr_year mmwr_week cases tests  hosp
   <chr> <chr>           <dbl> <fct>      <dbl>     <dbl> <dbl> <dbl> <dbl>
 1 AK    Alaska         733391 10          2020         4     0    NA    NA
 2 AK    Alaska         733391 10          2020         5     0    NA    NA
 3 AK    Alaska         733391 10          2020         6     0    NA    NA
 4 AK    Alaska         733391 10          2020         7     0    NA    NA
 5 AK    Alaska         733391 10          2020         8     0    NA    NA
 6 AK    Alaska         733391 10          2020         9     0    NA    NA
 7 AK    Alaska         733391 10          2020        10     0    NA    NA
 8 AK    Alaska         733391 10          2020        11     0    14    NA
 9 AK    Alaska         733391 10          2020        12    11   144    NA
10 AK    Alaska         733391 10          2020        13    52   968    NA
# ℹ 9,843 more rows
# ℹ 8 more variables: deaths_underlying_cause <dbl>,
#   deaths_multiple_causes <dbl>, deaths_prov <dbl>, series_complete <dbl>,
#   booster <dbl>, bivalent <dbl>, start_date <date>, end_date <date>
…
Answer: The trend plots above show that cumulative trends look pretty consistent for Wyoming, Maine, South Dakota, West Virginia, Alaska, District of Columbia, and Nevada. There are no large fluctuations or deviations for each other. In addition, these plots don’t show negative number of tests because they are cumulative test trends. The number of tests is adding up from the first record for number of tests. However, there are some small drops on these plots, which indicates the cumulative number of tests is going down and this could not be true in real life. These small drops illustrate these inconsistent negative number of tests.

JHU stopped reporting some time in 2021. What was that date? Show the day in the format September 18, 2022.

# first find date with year = 2021 & no test data
dat |>
  filter(is.na(tests) == TRUE & dat$mmwr_year == 2021)

# A tibble: 106 × 17
   state state_name population region mmwr_year mmwr_week  cases tests  hosp
   <chr> <chr>           <dbl> <fct>      <dbl>     <dbl>  <dbl> <dbl> <dbl>
 1 AK    Alaska         733391 10          2021        51   1046    NA    45
 2 AK    Alaska         733391 10          2021        52   2080    NA    51
 3 AL    Alabama       5024279 4           2021        51   6226    NA   479
 4 AL    Alabama       5024279 4           2021        52  19197    NA   975
 5 AR    Arkansas      3011524 6           2021        51   5681    NA   420
 6 AR    Arkansas      3011524 6           2021        52  11305    NA   639
 7 AZ    Arizona       7151502 9           2021        51  20186    NA  1793
 8 AZ    Arizona       7151502 9           2021        52  23897    NA  2014
 9 CA    California   39538223 9           2021        51  65862    NA  2969
10 CA    California   39538223 9           2021        52 185504    NA  6140
# ℹ 96 more rows
# ℹ 8 more variables: deaths_underlying_cause <dbl>,
#   deaths_multiple_causes <dbl>, deaths_prov <dbl>, series_complete <dbl>,
#   booster <dbl>, bivalent <dbl>, start_date <date>, end_date <date>
…
